^C:\USERS\ADRIAN\DESKTOP\SOURCE CODE\CVBLOBSLIB_OPENCV_V83\DEBUG\BLOB.OBJ|C:\USERS\ADRIAN\DESKTOP\SOURCE CODE\CVBLOBSLIB_OPENCV_V83\DEBUG\BLOBCONTOUR.OBJ|C:\USERS\ADRIAN\DESKTOP\SOURCE CODE\CVBLOBSLIB_OPENCV_V83\DEBUG\BLOBOPERATORS.OBJ|C:\USERS\ADRIAN\DESKTOP\SOURCE CODE\CVBLOBSLIB_OPENCV_V83\DEBUG\BLOBRESULT.OBJ|C:\USERS\ADRIAN\DESKTOP\SOURCE CODE\CVBLOBSLIB_OPENCV_V83\DEBUG\COMPONENTLABELING.OBJ
C:\WINDOWS\SYSTEM32\TZRES.DLL
C:\USERS\ADRIAN\DESKTOP\SOURCE CODE\CVBLOBSLIB_OPENCV_V83\DEBUG\BLOB.OBJ
C:\USERS\ADRIAN\DESKTOP\SOURCE CODE\CVBLOBSLIB_OPENCV_V83\DEBUG\BLOBCONTOUR.OBJ
C:\USERS\ADRIAN\DESKTOP\SOURCE CODE\CVBLOBSLIB_OPENCV_V83\DEBUG\BLOBOPERATORS.OBJ
C:\USERS\ADRIAN\DESKTOP\SOURCE CODE\CVBLOBSLIB_OPENCV_V83\DEBUG\BLOBRESULT.OBJ
C:\USERS\ADRIAN\DESKTOP\SOURCE CODE\CVBLOBSLIB_OPENCV_V83\DEBUG\COMPONENTLABELING.OBJ
C:\WINDOWS\GLOBALIZATION\SORTING\SORTDEFAULT.NLS
